…
.. code:: R

    options(tibble.width = Inf)
    dfOptimal %>%
        group_by(algo) %>%
        mutate(accTime = cumsum(ins_rm) , 
               amorTime = cumsum(ins_rm)/row_number()) %>%
        arrange(algo) -> avgTime

    avgTime

::

    # A tibble: 52,848 x 10
    # Groups:   algo [3]
        algo     T    id    count   insert remove    tSize   ins_rm  accTime amorTime
       <chr> <int> <int>    <int>    <dbl>  <dbl>   <fctr>    <dbl>    <dbl>    <dbl>
     1 BTree 17616 17616 17617000 0.732565      0 18717000 0.732565 0.732565 0.732565
     2 BTree 17616 17617 17618000 0.730783      0 18717000 0.730783 1.463348 0.731674
     3 BTree 17616 17618 17619000 0.721599      0 18717000 0.721599 2.184947 0.728316
     4 BTree 17616 17619 17620000 0.731386      0 18717000 0.731386 2.916333 0.729083
     5 BTree 17616 17620 17621000 0.732198      0 18717000 0.732198 3.648531 0.729706
     6 BTree 17616 17621 17622000 0.722543      0 18717000 0.722543 4.371074 0.728512
     7 BTree 17616 17622 17623000 0.726246      0 18717000 0.726246 5.097320 0.728189
     8 BTree 17616 17623 17624000 0.725742      0 18717000 0.725742 5.823062 0.727883
     9 BTree 17616 17624 17625000 0.723844      0 18717000 0.723844 6.546906 0.727434
    10 BTree 17616 17625 17626000 0.734492      0 18717000 0.734492 7.281398 0.728140
    # ... with 52,838 more rows
…
